<?xml version="1.0" encoding="utf-8"?>
<!-- Generator: Adobe Illustrator 23.0.2, SVG Export Plug-In . SVG Version: 6.00 Build 0)  -->
<svg version="1.1" id="Layer_1" xmlns="http://www.w3.org/2000/svg" xmlns:xlink="http://www.w3.org/1999/xlink" x="0px" y="0px"
	 viewBox="0 0 77.8 77.8" style="enable-background:new 0 0 77.8 77.8;" xml:space="preserve">
<style type="text/css">
	.st0{fill:url(#SVGID_1_);}
	.st1{fill:url(#SVGID_2_);}
	.st2{fill:url(#SVGID_3_);}
	.st3{fill:url(#SVGID_4_);}
	.st4{fill:url(#SVGID_5_);}
	.st5{fill:url(#SVGID_6_);}
	.st6{fill:url(#SVGID_7_);}
	.st7{fill:url(#SVGID_8_);}
	.st8{fill:url(#SVGID_9_);}
	.st9{fill:url(#SVGID_10_);}
	.st10{fill:url(#SVGID_11_);}
</style>
<linearGradient id="SVGID_1_" gradientUnits="userSpaceOnUse" x1="0" y1="75.2169" x2="5.218" y2="75.2169">
	<stop  offset="4.888180e-07" style="stop-color:#FF5769"/>
	<stop  offset="0.9961" style="stop-color:#FD7554"/>
</linearGradient>
<path class="st0" d="M2.7,73l-2.2,2.2c-0.6,0.6-0.6,1.5,0,2.1c0.3,0.3,0.7,0.4,1.1,0.4s0.8-0.1,1.1-0.4l2.2-2.2
	c0.6-0.6,0.6-1.5,0-2.1C4.2,72.5,3.2,72.5,2.7,73z"/>
<linearGradient id="SVGID_2_" gradientUnits="userSpaceOnUse" x1="4.873" y1="71.3834" x2="8.015" y2="71.3834">
	<stop  offset="4.888180e-07" style="stop-color:#FF5769"/>
	<stop  offset="0.9961" style="stop-color:#FD7554"/>
</linearGradient>
<path class="st1" d="M5.5,70.3l-0.1,0.1c-0.6,0.6-0.6,1.5,0,2.1C5.6,72.8,6,73,6.4,73s0.8-0.1,1.1-0.4l0.1-0.1
	c0.6-0.6,0.6-1.5,0-2.1C7,69.7,6,69.7,5.5,70.3z"/>
<linearGradient id="SVGID_3_" gradientUnits="userSpaceOnUse" x1="7.795" y1="64.1594" x2="19.5394" y2="64.1594">
	<stop  offset="4.888180e-07" style="stop-color:#FF5769"/>
	<stop  offset="0.9961" style="stop-color:#FD7554"/>
</linearGradient>
<path class="st2" d="M19.1,58.7c-0.6-0.6-1.5-0.6-2.1,0l-8.7,8.7c-0.6,0.6-0.6,1.5,0,2.1C8.5,69.9,8.9,70,9.3,70s0.8-0.1,1.1-0.4
	l8.7-8.7C19.7,60.3,19.7,59.3,19.1,58.7z"/>
<linearGradient id="SVGID_4_" gradientUnits="userSpaceOnUse" x1="6.397" y1="55.8464" x2="13.532" y2="55.8464">
	<stop  offset="4.888180e-07" style="stop-color:#FF5769"/>
	<stop  offset="0.9961" style="stop-color:#FD7554"/>
</linearGradient>
<path class="st3" d="M7.9,59.4c0.4,0,0.8-0.1,1.1-0.4l4.1-4.1c0.6-0.6,0.6-1.5,0-2.1c-0.6-0.6-1.5-0.6-2.1,0l-4.1,4.1
	c-0.6,0.6-0.6,1.5,0,2.1C7.1,59.3,7.5,59.4,7.9,59.4z"/>
<linearGradient id="SVGID_5_" gradientUnits="userSpaceOnUse" x1="44.1283" y1="25.7321" x2="60.0588" y2="25.7321">
	<stop  offset="4.888180e-07" style="stop-color:#FF5769"/>
	<stop  offset="0.9961" style="stop-color:#FD7554"/>
</linearGradient>
<path class="st4" d="M46.5,20.1c-3.1,3.1-3.1,8.2,0,11.3c1.6,1.6,3.6,2.3,5.6,2.3s4.1-0.8,5.6-2.3c3.1-3.1,3.1-8.2,0-11.3
	C54.6,17,49.6,17,46.5,20.1z M55.9,28.9h-7.5c-0.2-0.3-0.4-0.5-0.6-0.8h8.7C56.3,28.4,56.1,28.7,55.9,28.9z M48.3,22.6h7.7
	c0.2,0.3,0.4,0.5,0.6,0.8h-8.8C47.9,23.1,48,22.9,48.3,22.6z M56.9,24.4c0.1,0.3,0.1,0.6,0.1,0.8h-9.8c0-0.3,0.1-0.6,0.1-0.8H56.9z
	 M47.3,27.1c-0.1-0.3-0.1-0.6-0.2-0.8H57c0,0.3-0.1,0.6-0.2,0.8H47.3z M54.9,21.6h-5.5c0.8-0.6,1.8-0.8,2.8-0.8
	C53.1,20.8,54,21,54.9,21.6z M49.5,29.9h5.2C53.1,30.9,51.1,30.9,49.5,29.9z"/>
<linearGradient id="SVGID_6_" gradientUnits="userSpaceOnUse" x1="7.2999" y1="35.2628" x2="77.8267" y2="35.2628">
	<stop  offset="4.888180e-07" style="stop-color:#FF5769"/>
	<stop  offset="0.9961" style="stop-color:#FD7554"/>
</linearGradient>
<path class="st5" d="M77.8,2.7l0-1.2c0-0.8-0.7-1.4-1.5-1.5l-1.2,0c-6.3-0.2-14.2-0.4-20,3c-6.4,3.7-11.9,9.2-17.1,14.6
	c-0.5,0.5-1,1-1.4,1.4l-13.9,0.6c-0.4,0-0.7,0.2-1,0.4L7.7,34c-0.4,0.4-0.6,1.1-0.3,1.6c0.2,0.6,0.8,0.9,1.4,0.9H19l-2.2,2.2
	c-0.3,0.3-0.4,0.7-0.4,1.1s0.2,0.8,0.4,1.1l2.2,2.2l-3.9,2.2c-0.4,0.2-0.7,0.6-0.8,1.1c-0.1,0.5,0.1,0.9,0.4,1.3L30.2,63
	c0.3,0.3,0.7,0.4,1.1,0.4c0.1,0,0.1,0,0.2,0c0.5-0.1,0.9-0.3,1.1-0.8l2.2-3.9l2.2,2.2c0.3,0.3,0.7,0.4,1.1,0.4s0.8-0.1,1.1-0.4
	l2.2-2.2V69c0,0.6,0.4,1.2,0.9,1.4c0.2,0.1,0.4,0.1,0.6,0.1c0.4,0,0.8-0.2,1.1-0.4l13.9-13.9c0.3-0.3,0.4-0.6,0.4-1l0.6-13.9
	c0.5-0.5,1-1,1.4-1.4c5.3-5.3,10.8-10.8,14.6-17.1C78.1,16.9,77.9,9.1,77.8,2.7z M12.4,33.6l10.9-10.9l10.1-0.5L22,33.6H12.4z
	 M30.9,59.5L18.3,46.9l2.9-1.6l11.3,11.3L30.9,59.5z M44.2,65.4v-9.6l11.3-11.3l-0.5,10.1L44.2,65.4z M72.1,21.2
	c-3.5,6.1-8.9,11.4-14.1,16.5c-0.7,0.7-1.4,1.3-2,2l-18,18l-9-9l-9-9l18-18c0.7-0.7,1.3-1.3,2-2c5.1-5.2,10.5-10.6,16.5-14.1
	c5-2.9,12-2.8,18.2-2.6C74.9,9.3,75.1,16.2,72.1,21.2z"/>
<linearGradient id="SVGID_7_" gradientUnits="userSpaceOnUse" x1="4.038" y1="60.2204" x2="7.144" y2="60.2204">
	<stop  offset="4.888180e-07" style="stop-color:#FF5769"/>
	<stop  offset="0.9961" style="stop-color:#FD7554"/>
</linearGradient>
<path class="st6" d="M5.5,61.8c0.4,0,0.8-0.1,1.1-0.4l0.1-0.1c0.6-0.6,0.6-1.5,0-2.1c-0.6-0.6-1.5-0.6-2.1,0l-0.1,0.1
	c-0.6,0.6-0.6,1.5,0,2.1C4.8,61.6,5.2,61.8,5.5,61.8z"/>
<linearGradient id="SVGID_8_" gradientUnits="userSpaceOnUse" x1="0.656" y1="63.1184" x2="4.729" y2="63.1184">
	<stop  offset="4.888180e-07" style="stop-color:#FF5769"/>
	<stop  offset="0.9961" style="stop-color:#FD7554"/>
</linearGradient>
<path class="st7" d="M2.2,65.2c0.4,0,0.8-0.1,1.1-0.4l1.1-1.1c0.6-0.6,0.6-1.5,0-2.1c-0.6-0.6-1.5-0.6-2.1,0l-1.1,1.1
	c-0.6,0.6-0.6,1.5,0,2.1C1.4,65,1.8,65.2,2.2,65.2z"/>
<linearGradient id="SVGID_9_" gradientUnits="userSpaceOnUse" x1="12.671" y1="73.6034" x2="19.807" y2="73.6034">
	<stop  offset="4.888180e-07" style="stop-color:#FF5769"/>
	<stop  offset="0.9961" style="stop-color:#FD7554"/>
</linearGradient>
<path class="st8" d="M17.2,70.5l-4.1,4.1c-0.6,0.6-0.6,1.5,0,2.1c0.3,0.3,0.7,0.4,1.1,0.4s0.8-0.1,1.1-0.4l4.1-4.1
	c0.6-0.6,0.6-1.5,0-2.1C18.8,69.9,17.8,69.9,17.2,70.5z"/>
<linearGradient id="SVGID_10_" gradientUnits="userSpaceOnUse" x1="19.0719" y1="69.2299" x2="22.1521" y2="69.2299">
	<stop  offset="4.888180e-07" style="stop-color:#FF5769"/>
	<stop  offset="0.9961" style="stop-color:#FD7554"/>
</linearGradient>
<path class="st9" d="M21.7,68.2c-0.6-0.6-1.5-0.6-2.1-0.1c-0.6,0.6-0.6,1.5-0.1,2.1l0.1,0.1c0.3,0.3,0.7,0.5,1.1,0.5
	c0.4,0,0.7-0.1,1-0.4C22.3,69.8,22.3,68.9,21.7,68.2L21.7,68.2z"/>
<linearGradient id="SVGID_11_" gradientUnits="userSpaceOnUse" x1="21.474" y1="66.3312" x2="25.549" y2="66.3312">
	<stop  offset="4.888180e-07" style="stop-color:#FF5769"/>
	<stop  offset="0.9961" style="stop-color:#FD7554"/>
</linearGradient>
<path class="st10" d="M23,64.7l-1.1,1.1c-0.6,0.6-0.6,1.5,0,2.1c0.3,0.3,0.7,0.4,1.1,0.4s0.8-0.1,1.1-0.4l1.1-1.1
	c0.6-0.6,0.6-1.5,0-2.1C24.5,64.1,23.6,64.1,23,64.7z"/>
</svg>
